<?xml version="1.0" encoding="UTF-8"?>
<testng-results ignored="0" total="4" passed="4" failed="0" skipped="0">
  <reporter-output>
  </reporter-output>
  <suite started-at="2020-01-31T13:55:03Z" name="API Suite" finished-at="2020-01-31T13:55:26Z" duration-ms="22448">
    <groups>
    </groups>
    <test started-at="2020-01-31T13:55:03Z" name="Gists CRUD Suite" finished-at="2020-01-31T13:55:26Z" duration-ms="22448">
      <class name="com.github.GistsTests">
        <test-method is-config="true" signature="setUp(java.lang.reflect.Method, org.testng.ITestContext)[pri:0, instance:com.github.GistsTests@49e202ad]" started-at="2020-01-31T13:55:03Z" name="setUp" finished-at="2020-01-31T13:55:03Z" duration-ms="6" status="PASS">
          <params>
            <param index="0">
              <value>
                <![CDATA[public void com.github.GistsTests.createNewGist()]]>
              </value>
            </param>
            <param index="1">
              <value>
                <![CDATA[org.testng.TestRunner@55040f2f]]>
              </value>
            </param>
          </params>
          <reporter-output>
          </reporter-output>
        </test-method> <!-- setUp -->
        <test-method signature="createNewGist()[pri:0, instance:com.github.GistsTests@49e202ad]" started-at="2020-01-31T13:55:03Z" name="createNewGist" finished-at="2020-01-31T13:55:11Z" duration-ms="8083" status="PASS">
          <reporter-output>
          </reporter-output>
        </test-method> <!-- createNewGist -->
        <test-method is-config="true" signature="tearDown()[pri:0, instance:com.github.GistsTests@49e202ad]" started-at="2020-01-31T13:55:11Z" name="tearDown" finished-at="2020-01-31T13:55:11Z" duration-ms="1" status="PASS">
          <reporter-output>
          </reporter-output>
        </test-method> <!-- tearDown -->
        <test-method is-config="true" signature="setUp(java.lang.reflect.Method, org.testng.ITestContext)[pri:0, instance:com.github.GistsTests@49e202ad]" started-at="2020-01-31T13:55:11Z" name="setUp" finished-at="2020-01-31T13:55:11Z" duration-ms="1" status="PASS">
          <params>
            <param index="0">
              <value>
                <![CDATA[public void com.github.GistsTests.readGist()]]>
              </value>
            </param>
            <param index="1">
              <value>
                <![CDATA[org.testng.TestRunner@55040f2f]]>
              </value>
            </param>
          </params>
          <reporter-output>
          </reporter-output>
        </test-method> <!-- setUp -->
        <test-method signature="readGist()[pri:1, instance:com.github.GistsTests@49e202ad]" started-at="2020-01-31T13:55:11Z" name="readGist" finished-at="2020-01-31T13:55:14Z" duration-ms="2756" status="PASS">
          <reporter-output>
          </reporter-output>
        </test-method> <!-- readGist -->
        <test-method is-config="true" signature="tearDown()[pri:0, instance:com.github.GistsTests@49e202ad]" started-at="2020-01-31T13:55:14Z" name="tearDown" finished-at="2020-01-31T13:55:14Z" duration-ms="0" status="PASS">
          <reporter-output>
          </reporter-output>
        </test-method> <!-- tearDown -->
        <test-method is-config="true" signature="setUp(java.lang.reflect.Method, org.testng.ITestContext)[pri:0, instance:com.github.GistsTests@49e202ad]" started-at="2020-01-31T13:55:14Z" name="setUp" finished-at="2020-01-31T13:55:14Z" duration-ms="0" status="PASS">
          <params>
            <param index="0">
              <value>
                <![CDATA[public void com.github.GistsTests.editGist()]]>
              </value>
            </param>
            <param index="1">
              <value>
                <![CDATA[org.testng.TestRunner@55040f2f]]>
              </value>
            </param>
          </params>
          <reporter-output>
          </reporter-output>
        </test-method> <!-- setUp -->
        <test-method signature="editGist()[pri:2, instance:com.github.GistsTests@49e202ad]" started-at="2020-01-31T13:55:14Z" name="editGist" finished-at="2020-01-31T13:55:18Z" duration-ms="3686" status="PASS">
          <reporter-output>
          </reporter-output>
        </test-method> <!-- editGist -->
        <test-method is-config="true" signature="tearDown()[pri:0, instance:com.github.GistsTests@49e202ad]" started-at="2020-01-31T13:55:18Z" name="tearDown" finished-at="2020-01-31T13:55:18Z" duration-ms="1" status="PASS">
          <reporter-output>
          </reporter-output>
        </test-method> <!-- tearDown -->
        <test-method is-config="true" signature="setUp(java.lang.reflect.Method, org.testng.ITestContext)[pri:0, instance:com.github.GistsTests@49e202ad]" started-at="2020-01-31T13:55:18Z" name="setUp" finished-at="2020-01-31T13:55:18Z" duration-ms="0" status="PASS">
          <params>
            <param index="0">
              <value>
                <![CDATA[public void com.github.GistsTests.removeGist()]]>
              </value>
            </param>
            <param index="1">
              <value>
                <![CDATA[org.testng.TestRunner@55040f2f]]>
              </value>
            </param>
          </params>
          <reporter-output>
          </reporter-output>
        </test-method> <!-- setUp -->
        <test-method signature="removeGist()[pri:3, instance:com.github.GistsTests@49e202ad]" started-at="2020-01-31T13:55:18Z" name="removeGist" finished-at="2020-01-31T13:55:26Z" duration-ms="7880" status="PASS">
          <reporter-output>
          </reporter-output>
        </test-method> <!-- removeGist -->
        <test-method is-config="true" signature="tearDown()[pri:0, instance:com.github.GistsTests@49e202ad]" started-at="2020-01-31T13:55:26Z" name="tearDown" finished-at="2020-01-31T13:55:26Z" duration-ms="0" status="PASS">
          <reporter-output>
          </reporter-output>
        </test-method> <!-- tearDown -->
      </class> <!-- com.github.GistsTests -->
    </test> <!-- Gists CRUD Suite -->
  </suite> <!-- API Suite -->
</testng-results>
